[
    {
        "billorganizer": [
            "0",
            "12",
            "15",
            "食",
            "200"
        ]
    },
    {
        "billorganizer": [
            "1",
            "12",
            "15",
            "食",
            "200"
        ]
    },
    {
        "billorganizer": [
            "2",
            "12",
            "17",
            "食",
            "200"
        ]
    }
]
